Chapter 2 Manipulating Tree with Data | Data Integration, Manipulation and Visualization of Phylogenetic Trees
…
2.2.3.1 groupClade

The groupClade() method accepts an internal node or a vector of internal nodes
to add grouping information of selected clade/clades.

nwk <- '(((((((A:4,B:4):6,C:5):8,D:6):3,E:21):10,((F:4,G:12):14,H:8):13):
        13,((I:5,J:2):30,(K:11,L:11):2):17):4,M:56);'
tree <- read.tree(text=nwk)

groupClade(as_tibble(tree), c(17, 21))

## # A tibble: 25 × 5
##    parent  node branch.length label group
##     <int> <int>         <dbl> <chr> <fct>
##  1     20     1             4 A     1    
##  2     20     2             4 B     1    
##  3     19     3             5 C     1    
##  4     18     4             6 D     1    
##  5     17     5            21 E     1    
##  6     22     6             4 F     2    
##  7     22     7            12 G     2    
##  8     21     8             8 H     2    
##  9     24     9             5 I     0    
## 10     24    10             2 J     0    
## # … with 15 more rows
…
The groupOTU will trace back from input nodes to most recent common ancestor.
In this example, nodes 1, 4, 5 and 6 are
grouping together (4 (t2) -> 6 -> 5 and 1 (t4) -> 5).

Related OTUs are grouping and they are not necessarily within a clade.
They can be monophyletic (clade), polyphyletic or paraphyletic.

cls <- list(c1=c("A", "B", "C", "D", "E"),
            c2=c("F", "G", "H"),
            c3=c("L", "K", "I", "J"),
            c4="M")

as_tibble(tree) %>% groupOTU(cls)

## # A tibble: 25 × 5
##    parent  node branch.length label group
##     <int> <int>         <dbl> <chr> <fct>
##  1     20     1             4 A     c1   
##  2     20     2             4 B     c1   
##  3     19     3             5 C     c1   
##  4     18     4             6 D     c1   
##  5     17     5            21 E     c1   
##  6     22     6             4 F     c2   
##  7     22     7            12 G     c2   
##  8     21     8             8 H     c2   
##  9     24     9             5 I     c3   
## 10     24    10             2 J     c3   
## # … with 15 more rows
…
