Chapter 1 Importing Tree with Data | Data Integration, Manipulation and Visualization of Phylogenetic Trees with R
…
get.fields(beast_tree)

##  [1] "height"          "height_0.95_HPD"
##  [3] "height_median"   "height_range"   
##  [5] "length"          "length_0.95_HPD"
##  [7] "length_median"   "length_range"   
##  [9] "posterior"       "rate"           
## [11] "rate_0.95_HPD"   "rate_median"    
## [13] "rate_range"

The get.data method returns a tibble of all the associated data.

get.data(beast_tree)

## # A tibble: 151 × 14
##    height height_0.95_HPD height_median height_range
##     <dbl> <list>                  <dbl> <list>      
##  1   19   <dbl [2]>                19   <dbl [2]>   
##  2   17   <dbl [2]>                17   <dbl [2]>   
##  3   14   <dbl [2]>                14   <dbl [2]>   
##  4   12   <dbl [2]>                12   <dbl [2]>   
##  5    9   <dbl [2]>                 9   <dbl [2]>   
##  6   10   <dbl [2]>                10   <dbl [2]>   
##  7   10   <dbl [2]>                10   <dbl [2]>   
##  8   10.8 <dbl [2]>                10.8 <dbl [2]>   
##  9    9   <dbl [2]>                 9   <dbl [2]>   
## 10    9   <dbl [2]>                 9   <dbl [2]>   
## # … with 141 more rows, and 10 more variables:
## #   length <dbl>, length_0.95_HPD <list>,
## #   length_median <dbl>, length_range <list>,
## #   posterior <dbl>, rate <dbl>, rate_0.95_HPD <list>,
## #   rate_median <dbl>, rate_range <list>, node <int>

If users are only interested in a subset of the features/attributes returned by
get.fields, they can extract the information from the output of get.data or
directly subset the data by [ or [[.

beast_tree[, c("node", "height")]

## # A tibble: 151 × 2
##     node height
##    <int>  <dbl>
##  1    10   19  
##  2     9   17  
##  3    36   14  
##  4    31   12  
##  5    29    9  
##  6    28   10  
##  7    39   10  
##  8    90   10.8
##  9    16    9  
## 10     2    9  
## # … with 141 more rows
…
